date	player	score
2018-04-19	alexey_ply	-70.0
2018-06-20	alexey_ply	0.0
2018-07-05	alexey_ply	-35.0
2018-07-15	alexey_ply	52.75
2018-07-26	alexey_ply	-6.25
2018-08-14	alexey_ply	-100.0
2018-08-26	alexey_ply	-36.0
2018-09-04	alexey_ply	-4.25
2018-11-30	alexey_ply	-175.0
2018-01-22	alexey_dod	-3.0
2018-02-09	alexey_dod	-150.0
2018-04-07	alexey_dod	-64.0
2018-04-27	alexey_dod	-101.50
2018-04-28	alexey_dod	-74.75
2018-06-06	alexey_dod	-32.25
2018-08-29	alexey_dod	50.25
2018-12-10	alexey_dod	-54.0
2018-06-20	pavel_d	82.0
2018-08-03	pavel_d	30.75
2018-04-04	kolya_b	60.0
2018-04-28	sasha_f	37.25
2018-05-19	sasha_f	-14.0
2018-08-14	alik	181.0
2018-04-27	dima_s	-158.50
2018-06-20	dima_s	-100.0
2018-06-27	dima_s	-12.0
2018-01-09	volodya	-97.75
2018-01-22	volodya	-16.0
2018-02-09	volodya	286.5
2018-03-07	volodya	-4.75
2018-03-19	volodya	13.5
2018-03-29	volodya	-31.75
2018-04-01	volodya	-57.0
2018-04-02	volodya	15.0
2018-04-04	volodya	-110.0
2018-04-07	volodya	23.5
2018-04-09	volodya	30.5
2018-04-19	volodya	-75.5
2018-04-20	volodya	-128.75
2018-04-23	volodya	-43.0
2018-05-03	volodya	246.0
2018-05-08	volodya	34.25
2018-05-09	volodya	-29.75
2018-05-11	volodya	14.0
2018-05-13	volodya	56.25
2018-05-17	volodya	21.5
2018-05-19	volodya	126.5
2018-06-06	volodya	7.5
2018-06-07	volodya	-41.25
2018-06-20	volodya	-104.5
2018-06-23	volodya	-86.75
2018-06-27	volodya	25.0
2018-07-05	volodya	25.0
2018-07-11	volodya	3.0
2018-07-15	volodya	89.0
2018-07-16	volodya	-26.25
2018-07-19	volodya	-76.25
2018-07-26	volodya	42.25
2018-08-29	volodya	-4.75
2018-09-04	volodya	65.5
2018-09-08	volodya	167.75
2018-09-25	volodya	-87.5
2018-09-26	volodya	42.5
2018-09-30	volodya	50.0
2018-10-04	volodya	-70.0
2018-10-09	volodya	21.75
2018-10-15	volodya	-41.75
2018-10-19	volodya	-100.0
2018-10-22	volodya	17.5
2018-10-25	volodya	4.5
2018-11-01	volodya	241.75
2018-11-03	volodya	15.5
2018-11-11	volodya	-2.5
2018-11-18	volodya	166.25
2018-11-21	volodya	55.25
2018-11-24	volodya	-13.75
2018-12-10	volodya	-1.75
2018-12-13	volodya	-48.5
2018-12-17	volodya	-66.75
2018-12-22	volodya	53.0
2018-01-09	vitya	-53.5
2018-01-22	vitya	-200.0
2018-02-09	vitya	-80.5
2018-03-07	vitya	49.75
2018-03-19	vitya	-116.5
2018-03-20	vitya	-150.0
2018-03-29	vitya	59.5
2018-03-31	vitya	125.75
2018-04-01	vitya	7.0
2018-04-02	vitya	82.0
2018-04-04	vitya	-16.5
2018-04-07	vitya	43.25
2018-04-09	vitya	32.75
2018-04-19	vitya	332.0
2018-04-20	vitya	119.0
2018-04-23	vitya	-129.75
2018-05-09	vitya	80.75
2018-05-11	vitya	-265.75
2018-05-15	vitya	-100.0
2018-05-17	vitya	17.25
2018-06-07	vitya	64.25
2018-06-23	vitya	61.75
2018-06-27	vitya	21.5
2018-07-11	vitya	-103.5
2018-07-15	vitya	159.75
2018-07-16	vitya	-59.75
2018-07-19	vitya	-100.0
2018-07-26	vitya	-89.25
2018-08-06	vitya	-191.5
2018-08-12	vitya	-33.75
2018-08-21	vitya	41.5
2018-09-01	vitya	551.75
2018-09-04	vitya	63.0
2018-09-08	vitya	-198.25
2018-09-25	vitya	-241.5
2018-09-26	vitya	-56.25
2018-09-27	vitya	-128.0
2018-09-30	vitya	105.75
2018-10-04	vitya	260.0
2018-10-05	vitya	224.25
2018-10-06	vitya	-55.25
2018-10-09	vitya	-137.75
2018-10-10	vitya	246.5
2018-10-15	vitya	97.25
2018-10-19	vitya	76.25
2018-10-22	vitya	220.25
2018-10-25	vitya	7.5
2018-11-01	vitya	-128.75
2018-11-03	vitya	161.75
2018-11-08	vitya	58.5
2018-11-11	vitya	-171.0
2018-11-13	vitya	48.0
2018-11-18	vitya	-160.25
2018-11-21	vitya	114.75
2018-11-24	vitya	166.0
2018-11-30	vitya	99.0
2018-12-03	vitya	17.25
2018-12-17	vitya	35.0
2018-12-19	vitya	129.75
2018-12-22	vitya	85.5
2018-01-22	miktor	-219.75
2018-03-19	miktor	-102.0
2018-04-09	miktor	54.25
2018-04-19	miktor	-67.5
2018-04-20	miktor	62.25
2018-04-27	miktor	258
2018-04-28	miktor	102.0
2018-05-03	miktor	96.25
2018-05-08	miktor	-19.25
2018-05-13	miktor	117.0
2018-05-15	miktor	98.0
2018-05-17	miktor	-5.25
2018-05-19	miktor	-129.25
2018-07-11	miktor	263.75
2018-07-25	miktor	77.5
2018-08-14	miktor	-206.5
2018-08-26	miktor	38.25
2018-10-05	miktor	79.0
2018-10-29	miktor	159.25
2018-11-08	miktor	-128.0
2018-11-13	miktor	274.0
2018-11-30	miktor	26.0
2018-12-03	miktor	49.25
2018-12-10	miktor	204.75
2018-12-19	miktor	-181.5
2018-01-09	kirill	-88.0
2018-01-22	kirill	90.0
2018-02-09	kirill	153.25
2018-03-07	kirill	89.5
2018-03-20	kirill	105.75
2018-04-01	kirill	-80.0
2018-04-04	kirill	212.75
2018-04-07	kirill	110.5
2018-04-23	kirill	150.0
2018-05-09	kirill	-50.0
2018-05-11	kirill	450.25
2018-05-17	kirill	-9.5
2018-06-06	kirill	45.75
2018-06-20	kirill	10.75
2018-06-23	kirill	-7.25
2018-06-27	kirill	-100.0
2018-07-15	kirill	114.0
2018-07-19	kirill	157.0
2018-08-03	kirill	202.5
2018-08-06	kirill	138.0
2018-09-08	kirill	219.0
2018-09-25	kirill	157.5
2018-09-27	kirill	23.75
2018-09-30	kirill	-4.25
2018-10-04	kirill	35.25
2018-10-06	kirill	93.0
2018-10-09	kirill	-22.25
2018-10-15	kirill	-86.5
2018-10-19	kirill	-40.0
2018-10-22	kirill	-3.0
2018-11-08	kirill	-18.5
2018-11-11	kirill	176.0
2018-12-03	kirill	207.0
2018-12-10	kirill	22.0
2018-12-13	kirill	-67.0
2018-02-09	dima_l	81.75
2018-04-01	dima_l	33.5
2018-04-04	dima_l	-50.0
2018-05-09	dima_l	46.75
2018-08-12	dima_l	-65.75
2018-08-21	dima_l	60.75
2018-09-08	dima_l	84.5
2018-10-06	dima_l	-51.25
2018-10-10	dima_l	35.25
2018-10-19	dima_l	-25.0
2018-10-22	dima_l	-61.5
2018-11-01	dima_l	-13.5
2018-11-03	dima_l	-11.75
2018-11-08	dima_l	89.25
2018-11-11	dima_l	-19.5
2018-11-13	dima_l	10.75
2018-11-21	dima_l	147.75
2018-11-24	dima_l	31.0
2018-11-30	dima_l	-26.75
2018-12-10	dima_l	78.25
2018-12-17	dima_l	-10.0
2018-12-19	dima_l	-125.0
2018-01-09	roma_c	-131.25
2018-01-22	roma_c	119.25
2018-02-09	roma_c	48.5
2018-03-20	roma_c	43.0
2018-03-31	roma_c	-100.0
2018-04-02	roma_c	-24.75
2018-04-04	roma_c	-4.0
2018-04-07	roma_c	-118.75
2018-04-19	roma_c	-162.5
2018-04-20	roma_c	120.75
2018-04-23	roma_c	-15.5
2018-04-27	roma_c	-98.75
2018-04-28	roma_c	-400.0
2018-05-03	roma_c	-83.0
2018-05-08	roma_c	48.0
2018-05-09	roma_c	-26.5
2018-05-13	roma_c	-129.0
2018-05-15	roma_c	4.5
2018-05-17	roma_c	107.0
2018-05-19	roma_c	-83.0
2018-05-31	roma_c	29.75
2018-06-06	roma_c	120.0
2018-07-05	roma_c	-150.0
2018-07-11	roma_c	-144.25
2018-07-15	roma_c	-135.5
2018-07-19	roma_c	-38.25
2018-07-25	roma_c	-92.75
2018-08-14	roma_c	-122.75
2018-08-21	roma_c	-146.75
2018-08-26	roma_c	187.75
2018-08-29	roma_c	-50.0
2018-09-04	roma_c	-122.25
2018-10-04	roma_c	-19.25
2018-10-10	roma_c	26.5
2018-10-15	roma_c	36.0
2018-10-22	roma_c	0.0
2018-10-25	roma_c	-100.0
2018-10-29	roma_c	117.75
2018-11-08	roma_c	16.25
2018-11-13	roma_c	103.5
2018-11-30	roma_c	-162.25
2018-12-10	roma_c	-50.0
2018-12-13	roma_c	-148.5
2018-12-17	roma_c	10.75
2018-12-22	roma_c	28.25
2018-02-09	pasha_g	-150.0
2018-03-07	pasha_g	9.5
2018-03-20	pasha_g	-108.75
2018-03-29	pasha_g	-40.25
2018-04-04	pasha_g	-70.0
2018-04-23	pasha_g	-1.25
2018-05-09	pasha_g	-47.75
2018-05-23	pasha_g	-71.0
2018-06-06	pasha_g	35.5
2018-06-20	pasha_g	0.75
2018-06-27	pasha_g	161.5
2018-07-05	pasha_g	-20.75
2018-07-19	pasha_g	-64.0
2018-07-26	pasha_g	18.0
2018-08-03	pasha_g	-166.0
2018-08-14	pasha_g	-69.25
2018-08-26	pasha_g	-80.5
2018-09-04	pasha_g	-124.25
2018-10-05	pasha_g	-31.0
2018-10-09	pasha_g	203.25
2018-10-15	pasha_g	-88.5
2018-10-22	pasha_g	-99.5
2018-11-03	pasha_g	-90.5
2018-11-18	pasha_g	-73.75
2018-11-30	pasha_g	46.25
2018-12-03	pasha_g	-100.0
2018-12-22	pasha_g	170.0
2018-01-22	ivan_ch	-50.0
2018-03-07	ivan_ch	56.5
2018-03-19	ivan_ch	28.0
2018-04-01	ivan_ch	-53.5
2018-04-07	ivan_ch	-38.75
2018-04-09	ivan_ch	1.0
2018-04-23	ivan_ch	-49.5
2018-05-03	ivan_ch	-35.0
2018-05-09	ivan_ch	55.0
2018-05-23	ivan_ch	152.75
2018-05-31	ivan_ch	-66.5
2018-06-20	ivan_ch	89.75
2018-06-23	ivan_ch	-20.75
2018-06-27	ivan_ch	-50.0
2018-07-11	ivan_ch	0.0
2018-07-19	ivan_ch	12.5
2018-07-26	ivan_ch	-100.0
2018-08-03	ivan_ch	10.0
2018-09-26	ivan_ch	56.0
2018-10-04	ivan_ch	44.0
2018-10-05	ivan_ch	-123.5
2018-10-10	ivan_ch	-53.0
2018-10-19	ivan_ch	35.0
2018-11-18	ivan_ch	-18.25
2018-11-21	ivan_ch	-171.25
2018-01-09	golova	286.5
2018-01-22	golova	40.5
2018-02-09	golova	128.75
2018-03-19	golova	96.0
2018-03-20	golova	22.5
2018-04-01	golova	-36.25
2018-04-02	golova	-100.0
2018-04-07	golova	32.25
2018-04-09	golova	-21.75
2018-04-19	golova	68.75
2018-04-20	golova	-150.0
2018-04-27	golova	-112.5
2018-04-28	golova	119.25
2018-05-03	golova	-107.5
2018-05-08	golova	37.5
2018-05-11	golova	-100.0
2018-05-13	golova	74.25
2018-05-15	golova	11.5
2018-05-17	golova	-169.75
2018-05-19	golova	72.25
2018-05-23	golova	-4.25
2018-05-31	golova	79.5
2018-06-06	golova	-290.75
2018-06-20	golova	7.0
2018-06-27	golova	-100.75
2018-07-05	golova	85.0
2018-07-11	golova	158.0
2018-07-16	golova	-160.5
2018-07-19	golova	53.0
2018-07-25	golova	-68.5
2018-08-03	golova	-53.0
2018-08-06	golova	225.5
2018-08-14	golova	71.0
2018-08-21	golova	56.5
2018-08-26	golova	-22.5
2018-08-29	golova	140.5
2018-09-04	golova	34.5
2018-09-25	golova	-156.5
2018-09-27	golova	327.25
2018-10-05	golova	-24.0
2018-10-06	golova	13.5
2018-10-29	golova	-6.25
2018-11-01	golova	-116.5
2018-11-08	golova	227.5
2018-11-11	golova	172.5
2018-11-13	golova	-34.0
2018-11-18	golova	86.0
2018-11-21	golova	-146.5
2018-11-24	golova	-329.0
2018-11-30	golova	78.25
2018-12-03	golova	184.5
2018-12-10	golova	-68.75
2018-12-13	golova	-102.0
2018-12-17	golova	-20.75
2018-12-19	golova	12.25
2018-02-09	andrey_p	-200.0
2018-03-07	andrey_p	-128.5
2018-03-29	andrey_p	12.5
2018-03-31	andrey_p	8.75
2018-04-01	andrey_p	-92.75
2018-04-02	andrey_p	108.0
2018-04-04	andrey_p	-250.0
2018-04-19	andrey_p	-25.25
2018-04-20	andrey_p	79.0
2018-04-23	andrey_p	-162.5
2018-04-27	andrey_p	347.50
2018-04-28	andrey_p	268.25
2018-05-03	andrey_p	-211.5
2018-05-08	andrey_p	-100.0
2018-05-11	andrey_p	-50.0
2018-05-13	andrey_p	-18.5
2018-05-15	andrey_p	-14.0
2018-05-17	andrey_p	13.5
2018-05-19	andrey_p	-205.0
2018-05-23	andrey_p	-201.5
2018-05-31	andrey_p	-200.0
2018-06-06	andrey_p	198.75
2018-06-07	andrey_p	-150.0
2018-07-11	andrey_p	-250.0
2018-07-15	andrey_p	-72.25
2018-07-16	andrey_p	223.5
2018-07-19	andrey_p	55.25
2018-07-25	andrey_p	83.75
2018-07-26	andrey_p	101.0
2018-08-03	andrey_p	-307.0
2018-08-06	andrey_p	27.25
2018-08-12	andrey_p	42.0
2018-08-14	andrey_p	-341.0
2018-08-26	andrey_p	-236.25
2018-08-29	andrey_p	-98.5
2018-09-01	andrey_p	-120.75
2018-09-08	andrey_p	-149.25
2018-09-25	andrey_p	443.75
2018-09-27	andrey_p	-98.5
2018-09-30	andrey_p	42.75
2018-10-04	andrey_p	-250.0
2018-10-05	andrey_p	-100.0
2018-10-09	andrey_p	-152.75
2018-10-10	andrey_p	-155.25
2018-10-15	andrey_p	-126.5
2018-10-19	andrey_p	21.0
2018-10-22	andrey_p	-157.25
2018-10-25	andrey_p	433.25
2018-10-29	andrey_p	-341.25
2018-11-01	andrey_p	-114.0
2018-11-08	andrey_p	-115.75
2018-11-11	andrey_p	-155.5
2018-11-13	andrey_p	-316.0
2018-11-21	andrey_p	0.0
2018-11-24	andrey_p	145.75
2018-11-30	andrey_p	114.5
2018-12-03	andrey_p	-300.0
2018-12-10	andrey_p	19.5
2018-12-13	andrey_p	116.75
2018-12-17	andrey_p	21.75
2018-12-19	andrey_p	164.5
2018-12-22	andrey_p	-336.75
2018-01-09	ivan_f	84.0
2018-01-22	ivan_f	239.0
2018-02-09	ivan_f	-214.25
2018-03-07	ivan_f	-22.0
2018-03-19	ivan_f	81.0
2018-03-20	ivan_f	87.5
2018-04-01	ivan_f	279.0
2018-04-02	ivan_f	-85.75
2018-04-04	ivan_f	27.75
2018-04-07	ivan_f	12.0
2018-04-09	ivan_f	-96.75
2018-04-20	ivan_f	79.5
2018-04-23	ivan_f	251.5
2018-04-27	ivan_f	-133.50
2018-04-28	ivan_f	-52.0
2018-05-03	ivan_f	106.75
2018-05-09	ivan_f	-28.5
2018-05-11	ivan_f	-48.5
2018-05-13	ivan_f	-100.0
2018-05-19	ivan_f	232.5
2018-06-20	ivan_f	14.25
2018-06-23	ivan_f	53.0
2018-06-27	ivan_f	54.75
2018-07-05	ivan_f	40.0
2018-07-11	ivan_f	-150.0
2018-07-15	ivan_f	-107.75
2018-07-16	ivan_f	23.0
2018-07-19	ivan_f	-6.25
2018-07-26	ivan_f	-50.0
2018-08-03	ivan_f	-144.75
2018-08-06	ivan_f	239.0
2018-08-12	ivan_f	57.5
2018-08-14	ivan_f	544.0
2018-08-21	ivan_f	-12.0
2018-08-26	ivan_f	112.0
2018-08-29	ivan_f	105.75
2018-09-01	ivan_f	-149.25
2018-09-04	ivan_f	13.25
2018-09-08	ivan_f	-229.25
2018-09-25	ivan_f	86.75
2018-09-27	ivan_f	-80.75
2018-10-05	ivan_f	101.75
2018-10-09	ivan_f	64.0
2018-10-10	ivan_f	-100.0
2018-10-15	ivan_f	165.0
2018-10-19	ivan_f	136.75
2018-10-22	ivan_f	40.5
2018-10-25	ivan_f	-452.25
2018-10-29	ivan_f	70.5
2018-11-01	ivan_f	-25.75
2018-11-08	ivan_f	-129.25
2018-11-13	ivan_f	-86.25
2018-12-10	ivan_f	-150.0
2018-12-13	ivan_f	5.25
2018-02-09	daniil	96.0
2018-03-31	daniil	-34.5
2018-04-02	daniil	5.5
2018-04-04	daniil	200.0
2018-04-20	daniil	32.75
2018-05-23	daniil	124.0
2018-05-31	daniil	157.25
2018-06-06	daniil	-84.5
2018-06-07	daniil	127.0
2018-07-05	daniil	55.75
2018-07-11	daniil	223.0
2018-07-15	daniil	-100.0
2018-07-19	daniil	7.0
2018-07-26	daniil	84.25
2018-08-03	daniil	427.5
2018-08-06	daniil	-438.25
2018-08-14	daniil	-7.25
2018-08-26	daniil	67.75
2018-08-29	daniil	-143.25
2018-09-01	daniil	-281.75
2018-09-04	daniil	46.25
2018-09-08	daniil	113.0
2018-09-25	daniil	-202.5
2018-09-26	daniil	-42.25
2018-09-27	daniil	-43.75
2018-09-30	daniil	-194.25
2018-10-05	daniil	-126.5
2018-10-09	daniil	23.75
2018-10-15	daniil	45.0
2018-10-19	daniil	-104.0
2018-10-22	daniil	43.0
2018-11-03	daniil	-75.0
2018-10-25	pasha_p	107.0
2018-11-01	pasha_p	156.75
2018-12-03	pasha_p	-100.0
2018-12-13	pasha_p	244.0
2019-01-03	vitya	-250
2019-01-03	miktor	-302.25
2019-01-03	pasha_g	-279.5
2019-01-03	roma_c	-200
2019-01-03	volodya	-18.5
2019-01-03	ivan_ch	59.75
2019-01-03	andrey_p	200
2019-01-03	ivan_f	949.75
2019-01-09	kirill	-124
2019-01-09	miktor	-88.25
2019-01-09	roma_c	-11.5
2019-01-09	golova	104.75
2019-01-09	ivan_f	119
2019-01-15	andrey_p	-347.5
2019-01-15	kirill	-90
2019-01-15	miktor	43.5
2019-01-15	roma_c	43.75
2019-01-15	ivan_f	141.25
2019-01-15	golova	209
2019-01-17	andrey_p	-129.25
2019-01-17	kirill	-59.5
2019-01-17	ivan_f	36.75
2019-01-17	golova	46
2019-01-17	roma_c	106
2019-01-22	kirill	-200
2019-01-22	golova	-32.5
2019-01-22	ivan_f	-13.75
2019-01-22	roma_c	-7.0
2019-01-22	andrey_p	2
2019-01-22	pasha_p	251.25
2019-01-24	andrey_p	-200
2019-01-24	roma_c	-56.5
2019-01-24	ivan_ch	-50
2019-01-24	miktor	23.5
2019-01-24	volodya	27.25
2019-01-24	golova	90.75
2019-01-24	ivan_f	165
2019-02-01	andrey_p	-200
2019-02-01	dima_l	-100
2019-02-01	volodya	-50
2019-02-01	pasha_g	-43.25
2019-02-01	vitya	33.5
2019-02-01	golova	118
2019-02-01	ivan_ch	241.75
2019-02-07	roma_c	-250
2019-02-07	ivan_ch	-57
2019-02-07	ivan_f	-36
2019-02-07	pasha_g	31.75
2019-02-07	daniil	39
2019-02-07	andrey_p	66.5
2019-02-07	golova	87
2019-02-07	pasha_p	118.75
2019-02-11	roma_c	-189.75
2019-02-11	andrey_p	-13
2019-02-11	golova	25
2019-02-11	ivan_f	177.75
2019-02-20	golova	-121.25
2019-02-20	ivan_f	-26.25
2019-02-20	andrey_p	9
2019-02-20	pasha_g	26.75
2019-02-20	kirill	30.25
2019-02-20	ivan_ch	81.5
2019-02-25	ivan_f	-402.75
2019-02-25	andrey_p	-95.5
2019-02-25	golova	-7.75
2019-02-25	roma_c	506
2019-02-28	roma_c	168
2019-02-28	golova	-125
2019-02-28	andrey_p	109.5
2019-02-28	kirill	-102.5
2019-02-28	dima_l	-50
2019-03-04	andrey_p	-169.25
2019-03-04	roma_c	54.5
2019-03-04	vitya	-5
2019-03-04	dima_l	31.25
2019-03-04	volodya	223.75
2019-03-06	roma_c	-200
2019-03-06	golova	-180.75
2019-03-06	pasha_g	-62.25
2019-03-06	pavel_d	-50
2019-03-06	ivan_f	-29.75
2019-03-06	volodya	6
2019-03-06	andrey_p	141
2019-03-06	pasha_p	375.75
2019-03-10	ivan_f	-413.75
2019-03-10	roma_c	-260.75
2019-03-10	miktor	133
2019-03-10	golova	267.25
2019-03-10	volodya	274.25
2019-03-13	roma_c	6
2019-03-13	volodya	-106
2019-03-13	kirill	-96
2019-03-13	vitya	196
2019-03-16	golova	83.50
2019-03-16	kirill	98.50
2019-03-16	roma_c	27.75
2019-03-16	andrey_p	-209.75
2019-03-19	kirill	-50
2019-03-19	roma_c	88
2019-03-19	golova	-30.75
2019-03-19	ivan_f	-7.25
2019-03-20	ivan_ch	-200
2019-03-20	golova	-96
2019-03-20	pasha_p	-93
2019-03-20	ivan_f	-30
2019-03-20	roma_c	-12.25
2019-03-20	andrey_p	41.5
2019-03-20	miktor	100.5
2019-03-20	pasha_g	289.25
2019-03-24	ivan_f	-77.5
2019-03-24	roma_c	-47
2019-03-24	daniil	31.25
2019-03-24	volodya	93.25
2019-03-26	roma_c	-344
2019-03-26	andrey_p	-500
2019-03-26	ivan_f	-500
2019-03-26	volodya	525.50
2019-03-26	golova	120.25
2019-03-26	miktor	698.25
2019-03-30	roma_c	-200.75
2019-03-30	pasha_g	-154.25
2019-03-30	ivan_ch	-137.5
2019-03-30	volodya	-49.25
2019-03-30	golova	15
2019-03-30	pasha_p	42.25
2019-03-30	ivan_f	236
2019-03-30	kirill	248.5
2019-04-04	ivan_f	-175.75
2019-04-04	daniil	-39.25
2019-04-04	volodya	33.25
2019-04-04	ivan_ch	88
2019-04-04	kirill	93.75
2019-04-18	andrey_p	-114.25
2019-04-18	volodya	-160.5
2019-04-18	roma_c	144.75
2019-04-18	kirill	110.75
2019-04-18	miktor	19.25
2019-04-20	volodya	235.75
2019-04-20	roma_c	230.25
2019-04-20	vitya	206
2019-04-20	golova	2.75
2019-04-20	kirill	-35
2019-04-20	pasha_g	-139.75
2019-04-20	andrey_p	-500
2019-04-24	miktor	-265
2019-04-24	ivan_f	46.25
2019-04-24	roma_c	101
2019-04-24	golova	117.75
2019-04-26	andrey_p	394.25
2019-04-26	miktor	46.5
2019-04-26	kirill	45.25
2019-04-26	volodya	-86
2019-04-26	vitya	-400
2019-04-30	golova	-254
2019-04-30	volodya	-160.25
2019-04-30	roma_c	17.75
2019-04-30	miktor	54.25
2019-04-30	ivan_f	133.5
2019-04-30	andrey_p	208.75
2019-05-05	ivan_f	-222.5
2019-05-05	andrey_p	-156.5
2019-05-05	golova	-62.5
2019-05-05	roma_c	107.75
2019-05-05	miktor	333.75
2019-05-08	ivan_f	-300
2019-05-08	roma_c	-200
2019-05-08	pasha_p	-150
2019-05-08	kirill	-49
2019-05-08	miktor	280.75
2019-05-08	golova	418.25
2019-05-10	vitya	270.5
2019-05-10	roma_c	234.5
2019-05-10	volodya	106
2019-05-10	miktor	22.25
2019-05-10	alexey_ply	-50
2019-05-10	dima_kr	-73.5
2019-05-10	daniil	-159.75
2019-05-10	andrey_p	-350
2019-05-15	ivan_f	-472.25
2019-05-15	miktor	-227.25
2019-05-15	andrey_p	41.25
2019-05-15	volodya	70.25
2019-05-15	kirill	139.25
2019-05-15	roma_c	204.0
2019-05-15	golova	244.75
2019-05-17	vitya	359.0
2019-05-17	volodya	175.5
2019-05-17	dima_l	73.75
2019-05-17	daniil	-12.25
2019-05-17	maks	-122.0
2019-05-17	andrey_p	-134.0
2019-05-17	ivan_ch	-150.0
2019-05-17	kirill	-190.0
2019-05-19	vitya	-400.0
2019-05-19	dima_s	-49.25
2019-05-19	ivan_f	-47.25
2019-05-19	volodya	-35.5
2019-05-19	andrey_p	38.0
2019-05-19	daniil	86.75
2019-05-19	kirill	93.25
2019-05-19	roma_c	314.0
2019-05-24	volodya	-252.25
2019-05-24	ivan_f	-207.5
2019-05-24	miktor	-52.75
2019-05-24	golova	35.0
2019-05-24	maks	54.0
2019-05-24	andrey_p	423.5
2019-05-30	vitya	187.5
2019-05-30	dima_l	113.5
2019-05-30	volodya	3.75
2019-05-30	ivan_ch	3.5
2019-05-30	roma_c	-61.75
2019-05-30	golova	-96.5
2019-05-30	andrey_p	-150.0
